%YAML 1.1
%TAG !u! tag:unity3d.com,2011:
--- !u!21 &2100000
Material:
  serializedVersion: 6
  m_ObjectHideFlags: 0
  m_CorrespondingSourceObject: {fileID: 0}
  m_PrefabInstance: {fileID: 0}
  m_PrefabAsset: {fileID: 0}
  m_Name: WaterMaterial 1
  m_Shader: {fileID: -6465566751694194690, guid: 73a75f82df681eb40acae1f4980ce281, type: 3}
  m_ShaderKeywords: 
  m_LightmapFlags: 4
  m_EnableInstancingVariants: 0
  m_DoubleSidedGI: 0
  m_CustomRenderQueue: -1
  stringTagMap: {}
  disabledShaderPasses: []
  m_SavedProperties:
    serializedVersion: 3
    m_TexEnvs:
    - Texture2D_2A7D5300:
        m_Texture: {fileID: 2800000, guid: 64aa8252d23699549a155fe61cba6b9f, type: 3}
        m_Scale: {x: 1, y: 1}
        m_Offset: {x: 0, y: 0}
    - Texture2D_3AAB45D4:
        m_Texture: {fileID: 2800000, guid: 64aa8252d23699549a155fe61cba6b9f, type: 3}
        m_Scale: {x: 1, y: 1}
        m_Offset: {x: 0, y: 0}
    - unity_Lightmaps:
        m_Texture: {fileID: 0}
        m_Scale: {x: 1, y: 1}
        m_Offset: {x: 0, y: 0}
    - unity_LightmapsInd:
        m_Texture: {fileID: 0}
        m_Scale: {x: 1, y: 1}
        m_Offset: {x: 0, y: 0}
    - unity_ShadowMasks:
        m_Texture: {fileID: 0}
        m_Scale: {x: 1, y: 1}
        m_Offset: {x: 0, y: 0}
    m_Floats:
    - Vector1_261132F9: 260.17
    - Vector1_34352785: 0.751
    - Vector1_6268A13: -30
    - Vector1_7CC39C15: 1.07
    - Vector1_95F323FC: 30
    - Vector1_AC86E1D0: 41.3
    - Vector1_B06A8FEF: 3.44
    - Vector1_E6823BF5: -0.66
    - Vector1_FBA8819A: 0.31
    m_Colors:
    - Color_58790467: {r: 1, g: 0.9009434, b: 0.9835704, a: 0.6117647}
    - Color_F8650611: {r: 0.23268957, g: 0.7179765, b: 0.7830189, a: 0.7647059}
    - Vector2_DED6862F: {r: 4, g: 4, b: 0, a: 0}
  m_BuildTextureStacks: []
