%YAML 1.1
%TAG !u! tag:unity3d.com,2011:
--- !u!114 &11400000
MonoBehaviour:
  m_ObjectHideFlags: 0
  m_CorrespondingSourceObject: {fileID: 0}
  m_PrefabInstance: {fileID: 0}
  m_PrefabAsset: {fileID: 0}
  m_GameObject: {fileID: 0}
  m_Enabled: 1
  m_EditorHideFlags: 0
  m_Script: {fileID: 11500000, guid: e4a1131d1122a2f4aa2abbadf08b077a, type: 3}
  m_Name: Tincan_2
  m_EditorClassIdentifier: 
  storageKey: {fileID: 5301908393499310528, guid: a6b76e8a727196f47872d80b2f4b1299, type: 3}
  storageValues:
  - {fileID: 5301908393499310528, guid: 277999fe3974bf349b47c48568a8f2fb, type: 3}
  - {fileID: 5301908393499310528, guid: a6b76e8a727196f47872d80b2f4b1299, type: 3}
  - {fileID: 5301908393499310528, guid: bf3e41cf70cb840499f6f9fbf2b5c1fb, type: 3}
